<svg xmlns="http://www.w3.org/2000/svg" width="50" height="50" viewBox="0 0 50 50">
  <defs>
    <style>
      .cls-1 {
        fill: #fff;
        fill-rule: evenodd;
      }
    </style>
  </defs>
  <path id="Forme_1" data-name="Forme 1" class="cls-1" d="M43.782,17.3V43.8A6.173,6.173,0,0,1,37.57,50H6.21A6.173,6.173,0,0,1,0,43.8V12.6A6.173,6.173,0,0,1,6.21,6.4H32.761l-6.212,6.2H6.21V43.8H37.57V23.6ZM38.973,4.4l-2.2,2.2,6.612,6.6,2.2-2.2ZM43.381,0l-2.2,2.2L47.79,8.8l2.2-2.2ZM14.426,28.7l6.613,6.6L41.077,15.4,34.464,8.8Zm-2.1,8.8h6.212l-6.212-6.2v6.2h0Z"/>
</svg>
