<svg id="Calque_1" data-name="Calque 1" xmlns="http://www.w3.org/2000/svg" width="46" height="29" viewBox="0 0 46 29">
  <defs>
    <style>
      .cls-1 {
        fill: #fff;
      }
    </style>
  </defs>
  <title>Eye-fff</title>
  <path id="Eye" class="cls-1" d="M23,0A25.74,25.74,0,0,0,0,14.5,25.74,25.74,0,0,0,23,29,25.74,25.74,0,0,0,46,14.5,25.74,25.74,0,0,0,23,0ZM34.34,7.69a22,22,0,0,1,6.71,6.81,22,22,0,0,1-6.71,6.81,20.92,20.92,0,0,1-22.68,0A22,22,0,0,1,4.95,14.5a22,22,0,0,1,6.71-6.81l.53-.33a11.52,11.52,0,1,0,22.31,4,11.67,11.67,0,0,0-.69-4ZM23,9.88a4.31,4.31,0,1,1-4.31-4.35A4.31,4.31,0,0,1,23,9.88Z" transform="translate(0 0)"/>
</svg>
