<svg xmlns="http://www.w3.org/2000/svg" width="32" height="60" viewBox="0 0 32 60">
  <defs>
    <style>
      .cls-1 {
        fill: #8b8a86;
        fill-opacity: 0.5;
      }

      .cls-1, .cls-2 {
        fill-rule: evenodd;
      }

      .cls-2 {
        fill: #64c1d1;
      }
    </style>
  </defs>
  <path id="Star_black_fivepointed_shape_copie_2" data-name="Star black fivepointed shape copie 2" class="cls-1" d="M30.582,12.9L24.294,19,25.778,27.6a1.653,1.653,0,0,1-.662,1.617,1.672,1.672,0,0,1-1.75.126L15.59,25.284,7.816,29.347a1.673,1.673,0,0,1-1.751-.125A1.649,1.649,0,0,1,5.4,27.605L6.889,19,0.6,12.9a1.648,1.648,0,0,1,.92-2.818L10.212,8.83,14.1,1A1.665,1.665,0,0,1,17.08,1l3.889,7.83,8.693,1.257A1.65,1.65,0,0,1,30.582,12.9Z"/>
  <path id="Star_black_fivepointed_shape_copie" data-name="Star black fivepointed shape copie" class="cls-2" d="M30.692,42.9L24.4,49,25.887,57.6a1.653,1.653,0,0,1-.662,1.617,1.672,1.672,0,0,1-1.751.126L15.7,55.284,7.926,59.347a1.673,1.673,0,0,1-1.751-.125,1.649,1.649,0,0,1-.661-1.617L7,49,0.71,42.9a1.648,1.648,0,0,1,.92-2.818l8.692-1.257L14.211,31a1.665,1.665,0,0,1,2.979,0l3.889,7.83,8.694,1.256A1.65,1.65,0,0,1,30.692,42.9Z"/>
</svg>
