<svg id="Capa_1" data-name="Capa 1" xmlns="http://www.w3.org/2000/svg" width="40" height="50" viewBox="0 0 40 50">
  <defs>
    <style>
      .cls-1 {
        fill: #fff;
      }
    </style>
  </defs>
  <title>candidats-blc</title>
  <path class="cls-1" d="M44.3,0H15.7A5.63,5.63,0,0,0,10,5.7V44.3A5.76,5.76,0,0,0,15.7,50H44.3A5.63,5.63,0,0,0,50,44.3V5.7A5.63,5.63,0,0,0,44.3,0Zm-29,19.2a2.43,2.43,0,0,1,2.4-2.4h.9A5.66,5.66,0,1,1,28.5,13,5.84,5.84,0,0,1,27,16.8h.8a2.43,2.43,0,0,1,2.4,2.4v4.1a2.41,2.41,0,0,1-2.3,2.4H17.6a2.41,2.41,0,0,1-2.3-2.4V19.2ZM42.4,42.6H17.6a2.3,2.3,0,0,1,0-4.6H42.4a2.26,2.26,0,0,1,2.3,2.3A2.33,2.33,0,0,1,42.4,42.6Zm0-8.6H17.6a2.3,2.3,0,0,1,0-4.6H42.4a2.26,2.26,0,0,1,2.3,2.3A2.33,2.33,0,0,1,42.4,34Zm0-8.5H34.9a2.3,2.3,0,1,1,0-4.6h7.5a2.26,2.26,0,0,1,2.3,2.3A2.39,2.39,0,0,1,42.4,25.5Z" transform="translate(-10 0)"/>
</svg>
